…
vec_urls = str_c(url_base, 1:5)

dynamite_reviews = bind_rows(
  read_page_reviews(vec_urls[1]),
  read_page_reviews(vec_urls[2]),
  read_page_reviews(vec_urls[3]),
  read_page_reviews(vec_urls[4]),
  read_page_reviews(vec_urls[5])
)

dynamite_reviews
```

    ## # A tibble: 50 × 3
    ##    title                                stars text                              
    ##    <chr>                                <dbl> <chr>                             
    ##  1 70’s and 80’s Schtick Comedy             5 …especially funny if you have eve…
    ##  2 Amazon Censorship                        5 I hope Amazon does not censor my …
    ##  3 Watch to say you did                     3 I know it's supposed to be a cult…
    ##  4 Best Movie Ever!                         5 We just love this movie and even …
    ##  5 Quirky                                   5 Good family film                  
    ##  6 Funny movie - can't play it !            1 Sony 4k player won't even recogni…
    ##  7 A brilliant story about teenage life     5 Napoleon Dynamite delivers dry hu…
    ##  8 HUHYAH                                   5 Spicy                             
    ##  9 Cult Classic                             4 Takes a time or two to fully appr…
    ## 10 Sweet                                    5 Timeless Movie. My Grandkids are …
    ## # … with 40 more rows
…
